<?xml version="1.0" encoding="UTF-8" standalone="no"?>
<!-- Created with Inkscape (http://www.inkscape.org/) -->

<svg
   xmlns:dc="http://purl.org/dc/elements/1.1/"
   xmlns:cc="http://creativecommons.org/ns#"
   xmlns:rdf="http://www.w3.org/1999/02/22-rdf-syntax-ns#"
   xmlns:svg="http://www.w3.org/2000/svg"
   xmlns="http://www.w3.org/2000/svg"
   xmlns:xlink="http://www.w3.org/1999/xlink"
   xmlns:sodipodi="http://sodipodi.sourceforge.net/DTD/sodipodi-0.dtd"
   xmlns:inkscape="http://www.inkscape.org/namespaces/inkscape"
   width="70"
   height="40"
   viewBox="0 0 18.520833 10.583333"
   version="1.1"
   id="svg2170"
   inkscape:version="0.92.4 (5da689c313, 2019-01-14)"
   sodipodi:docname="FIR_logo.svg">
  <defs
     id="defs2164">
    <linearGradient
       inkscape:collect="always"
       id="linearGradient2824">
      <stop
         style="stop-color:#bff4e6;stop-opacity:1"
         offset="0"
         id="stop2820" />
      <stop
         style="stop-color:#5799ea;stop-opacity:1"
         offset="0.2"
         id="stop2830" />
      <stop
         id="stop2832"
         offset="0.40000001"
         style="stop-color:#e574a1;stop-opacity:1" />
      <stop
         style="stop-color:#edb24a;stop-opacity:1"
         offset="0.667"
         id="stop2834" />
      <stop
         style="stop-color:#f7715c;stop-opacity:1"
         offset="1"
         id="stop2822" />
    </linearGradient>
    <linearGradient
       inkscape:collect="always"
       xlink:href="#linearGradient2824"
       id="linearGradient2826"
       x1="361.49585"
       y1="940.32275"
       x2="360.00391"
       y2="99.738281"
       gradientUnits="userSpaceOnUse"
       gradientTransform="matrix(0.26458333,0,0,0.26458333,-430.36353,0)" />
  </defs>
  <sodipodi:namedview
     id="base"
     pagecolor="#ffffff"
     bordercolor="#666666"
     borderopacity="1.0"
     inkscape:pageopacity="0.0"
     inkscape:pageshadow="2"
     inkscape:zoom="2"
     inkscape:cx="28.410847"
     inkscape:cy="45.257004"
     inkscape:document-units="mm"
     inkscape:current-layer="g857"
     showgrid="false"
     inkscape:window-width="2560"
     inkscape:window-height="1377"
     inkscape:window-x="1912"
     inkscape:window-y="-8"
     inkscape:window-maximized="1"
     fit-margin-top="0"
     fit-margin-left="0"
     fit-margin-right="0"
     fit-margin-bottom="0"
     units="px"
     scale-x="1" />
  <metadata
     id="metadata2167">
    <rdf:RDF>
      <cc:Work
         rdf:about="">
        <dc:format>image/svg+xml</dc:format>
        <dc:type
           rdf:resource="http://purl.org/dc/dcmitype/StillImage" />
        <dc:title></dc:title>
      </cc:Work>
    </rdf:RDF>
  </metadata>
  <g
     inkscape:label="Layer 1"
     inkscape:groupmode="layer"
     id="layer1"
     transform="translate(479.2146,-272.0144)">
    <g
       id="g857"
       transform="matrix(0.04052823,0,0,0.04052823,-460.55139,271.49419)">
      <path
         inkscape:connector-curvature="0"
         id="path2095"
         d="m -335.11244,26.389087 -83.33553,48.113859 83.33243,48.111794 83.33548,-48.113863 z m 100.0001,76.978763 -83.33342,48.11282 v 96.22565 l 83.33342,-48.1123 z m -200.00025,0.004 v 96.22255 l 83.33346,48.1123 v -96.22203 z"
         style="opacity:1;fill:url(#linearGradient2826);fill-opacity:1;stroke:none;stroke-width:0.08616076;stroke-linecap:round;stroke-linejoin:bevel;stroke-miterlimit:4;stroke-dasharray:none;stroke-opacity:1;paint-order:stroke fill markers" />
      <path
         inkscape:connector-curvature="0"
         id="path2148"
         d="m -318.44576,180.29132 v 50.53955 h 29.1791 z m -33.33337,5.2e-4 -29.1786,50.53903 h 29.1786 z"
         style="opacity:1;fill:#a41e22;fill-opacity:1;stroke:none;stroke-width:0.304259;stroke-linecap:round;stroke-linejoin:bevel;stroke-miterlimit:4;stroke-dasharray:none;stroke-opacity:1;paint-order:stroke fill markers" />
      <path
         inkscape:connector-curvature="0"
         id="path2134"
         d="m -335.11244,26.389087 -41.66776,72.170788 41.66466,24.054865 41.66929,-24.057966 z m 58.33287,101.035693 -41.66619,24.05589 v 48.11335 h 83.33342 z m -116.66733,0.003 -41.66569,72.16666 h 83.33346 v -48.10973 z"
         style="opacity:1;fill:#0a7f39;fill-opacity:1;stroke:none;stroke-width:0.35867473;stroke-linecap:round;stroke-linejoin:bevel;stroke-miterlimit:4;stroke-dasharray:none;stroke-opacity:1;paint-order:stroke fill markers" />
      <g
         transform="matrix(0.40196815,0,0,0.40196815,-3997.6763,5584.8527)"
         id="g17200-8"
         style="stroke:none;stroke-width:10;stroke-miterlimit:4;stroke-dasharray:none;stroke-opacity:1">
        <path
           id="path17194-1"
           d="m 9602.6916,-13572.662 v -44.115 h -150.4487 v 197.614 h 51.9024 v -75.786 h 83.5336 v -42.47 h -83.5336 v -35.243 z m 0,0"
           style="fill:#a41e22;fill-opacity:1;stroke:none;stroke-width:10;stroke-miterlimit:4;stroke-dasharray:none;stroke-opacity:1"
           inkscape:connector-curvature="0" />
        <path
           id="path17196-3"
           d="m 9633.3152,-13419.163 h 51.9024 v -197.614 h -51.9024 z m 0,0"
           style="fill:#a41e22;fill-opacity:1;stroke:none;stroke-width:10;stroke-miterlimit:4;stroke-dasharray:none;stroke-opacity:1"
           inkscape:connector-curvature="0" />
        <path
           id="path17198-0"
           d="m 9879.8645,-13474.116 c -1.9267,-18.585 -9.1521,-32.474 -29.4234,-38.295 23.041,-7.787 35.2439,-24.446 35.2439,-48.33 0,-31.35 -21.3551,-56.036 -63.8243,-56.036 h -104.0858 v 197.614 h 51.9024 v -72.736 h 31.6312 c 19.1473,0 26.9346,8.912 28.5804,26.654 l 4.4557,46.082 h 51.9024 z m -73.0166,-56.639 h -37.1706 v -45.239 h 39.9805 c 16.8994,0 24.6868,9.433 24.6868,22.198 0,13.046 -8.3092,23.041 -27.4967,23.041 z m 0,0"
           style="fill:#a41e22;fill-opacity:1;stroke:none;stroke-width:10;stroke-miterlimit:4;stroke-dasharray:none;stroke-opacity:1"
           inkscape:connector-curvature="0" />
      </g>
    </g>
  </g>
</svg>
